{
	"row-1":{
		"block-1":{"title":"Activities in this Project","view_name":"syclops_activities","display_id":"block_2","width":"span6","float":"left"},
      "block-2":{"title":"My Grants","view_name":"syclops_project","display_id":"block_8","width":"span3","float":"left"},
      "block-3":{"title":"Manage Connections","view_name":"syclops_connection","display_id":"block_11","width":"span3","float":"right"}, 
      "block-4":{"title":"Manage Members","view_name":"syclops_user","display_id":"block_1","width":"span3","float":"right"},
      "block-5":{"title":"Manage Grants","view_name":"syclops_project","display_id":"block_10","width":"span3","float":"left"}
	}
}
