{
	"row-1":{
		"block-1":{"title":"Activities in this Project","view_name":"syclops_activities","display_id":"block_2","width":"span6","float":"left"},
      "block-2":{"title":"My Grants","view_name":"syclops_content","display_id":"block_8","width":"span3","float":"left"},
		"block-3":{"title":"Members in this Project","view_name":"syclops_user","display_id":"block_2","width":"span3","float":"right"}
	}
}
