{
   "row-1":{
      "block-1":{"title":"Connection Details","view_name":"syclops_connection","display_id":"block_4","width":"span12","float":"left"}
   },
	"row-2":{
		"block-2":{"title":"Activities in this Connection","view_name":"syclops_activities","display_id":"block_3","width":"span6","float":"left"},
      "block-3":{"title":"Sessions in this Connection","view_name":"syclops_connection","display_id":"block_14","width":"span3","float":"left"},
		"block-4":{"title":"Active Grants in this Connection","view_name":"syclops_connection","display_id":"block_13","width":"span3","float":"right"}
	}
}
